{
    "dueDate": "2016-09-06T13:37:50+03:00",
    "encodedKey": "string",
    "fee": {
      "amount": {
        "due": 500,
        "expected": 500,
        "paid": 500
      },
      "tax": {
        "due": 0,
        "expected": 0,
        "paid": 0
      }
    },
    "feeDetails": [
      {
        "amount": {
          "due": 0,
          "expected": 0,
          "paid": 0,
          "reduced": 0
        },
        "encodedKey": "string",
        "name": "string",
        "tax": {
          "due": 0,
          "expected": 0,
          "paid": 0,
          "reduced": 0
        }
      }
    ],
    "interest": {
      "amount": {
        "due": 500,
        "expected": 500,
        "paid": 500
      },
      "tax": {
        "due": 0,
        "expected": 0,
        "paid": 0
      }
    },
    "isPaymentHoliday": false,
    "lastPaidDate": "2016-09-06T13:37:50+03:00",
    "number": "string",
    "parentAccountKey": "string",
    "penalty": {
      "amount": {
        "due": 0,
        "expected": 0,
        "paid": 0
      },
      "tax": {
        "due": 0,
        "expected": 0,
        "paid": 0
      }
    },
    "principal": {
      "amount": {
        "due": 500,
        "expected": 500,
        "paid": 500
      }
    },
    "repaidDate": "2016-09-06T13:37:50+03:00",
    "state": "PENDING"
  }